C:\Users\RENT\workspace\Servers\src\main\java\Request.java
C:\Users\RENT\workspace\Servers\src\main\java\pl\idahttpconnector\HttpConnector.java
C:\Users\RENT\workspace\Servers\src\main\java\pl\idahttpconnector\Main.java
